documents/add.vcd
$version Generated by VerilatedVcd $end
$date Sun Jul 23 17:31:24 2023 $end
$timescale 1ps $end

 $scope module TOP $end
  $var wire  1 W! DN_A $end
  $var wire  1 X! DN_B $end
  $var wire  1 Y! DN_C $end
  $var wire  1 Z! DN_D $end
  $var wire  1 ^! DN_DP $end
  $var wire  1 [! DN_E $end
  $var wire  1 \! DN_F $end
  $var wire  1 ]! DN_G $end
  $var wire 24 T! Switch [23:0] $end
  $var wire  5 U! button [4:0] $end
  $var wire  1 b! debug_wb_ena $end
  $var wire  1 `! debug_wb_have_inst $end
  $var wire 32 a! debug_wb_pc [31:0] $end
  $var wire  5 c! debug_wb_reg [4:0] $end
  $var wire 32 d! debug_wb_value [31:0] $end
  $var wire  8 V! dig_en [7:0] $end
  $var wire  1 S! fpga_clk $end
  $var wire  1 R! fpga_rst $end
  $var wire 24 _! led [23:0] $end
  $scope module miniRV_SoC $end
   $var wire 32 D! Bus_addr [31:0] $end
   $var wire 32 e! Bus_rdata [31:0] $end
   $var wire 32 C Bus_wdata [31:0] $end
   $var wire  1 B Bus_wen $end
   $var wire  1 W! DN_A $end
   $var wire  1 X! DN_B $end
   $var wire  1 Y! DN_C $end
   $var wire  1 Z! DN_D $end
   $var wire  1 ^! DN_DP $end
   $var wire  1 [! DN_E $end
   $var wire  1 \! DN_F $end
   $var wire  1 ]! DN_G $end
   $var wire 24 T! Switch [23:0] $end
   $var wire 12 u! addr_bridge2btn [11:0] $end
   $var wire 12 F! addr_bridge2dig [11:0] $end
   $var wire 32 D! addr_bridge2dram [31:0] $end
   $var wire 12 o! addr_bridge2led [11:0] $end
   $var wire 12 r! addr_bridge2sw [11:0] $end
   $var wire  5 U! button [4:0] $end
   $var wire  1 t! clk_bridge2btn $end
   $var wire  1 S! clk_bridge2dig $end
   $var wire  1 S! clk_bridge2dram $end
   $var wire  1 S! clk_bridge2led $end
   $var wire  1 q! clk_bridge2sw $end
   $var wire  1 S! cpu_clk $end
   $var wire  1 b! debug_wb_ena $end
   $var wire  1 `! debug_wb_have_inst $end
   $var wire 32 a! debug_wb_pc [31:0] $end
   $var wire  5 c! debug_wb_reg [4:0] $end
   $var wire 32 d! debug_wb_value [31:0] $end
   $var wire  8 V! dig_en [7:0] $end
   $var wire  1 S! fpga_clk $end
   $var wire  1 R! fpga_rst $end
   $var wire 32 h inst [31:0] $end
   $var wire 16 g inst_addr [15:0] $end
   $var wire 24 _! led [23:0] $end
   $var wire  8 ) led_cx [7:0] $end
   $var wire  1 n! pll_clk $end
   $var wire  1 m! pll_lock $end
   $var wire 32 v! rdata_btn2bridge [31:0] $end
   $var wire 32 E! rdata_dram2bridge [31:0] $end
   $var wire 32 i! rdata_sw2bridge [31:0] $end
   $var wire  1 s! rst_bridge2btn $end
   $var wire  1 R! rst_bridge2dig $end
   $var wire  1 R! rst_bridge2led $end
   $var wire  1 p! rst_bridge2sw $end
   $var wire 32 C wdata_bridge2dig [31:0] $end
   $var wire 32 C wdata_bridge2dram [31:0] $end
   $var wire 32 D wdata_bridge2led [31:0] $end
   $var wire  1 g! wen_bridge2dig $end
   $var wire  1 f! wen_bridge2dram $end
   $var wire  1 h! wen_bridge2led $end
   $scope module Bridge $end
    $var wire  5 L! access_bit [4:0] $end
    $var wire  1 K! access_btn $end
    $var wire  1 H! access_dig $end
    $var wire  1 I! access_led $end
    $var wire  1 G! access_mem $end
    $var wire  1 J! access_sw $end
    $var wire 32 D! addr_from_cpu [31:0] $end
    $var wire  1 M! addr_to_btn $end
    $var wire 12 F! addr_to_dig [11:0] $end
    $var wire 32 D! addr_to_dram [31:0] $end
    $var wire  1 M! addr_to_led $end
    $var wire  1 M! addr_to_sw $end
    $var wire  1 S! clk_from_cpu $end
    $var wire  1 S! clk_to_btn $end
    $var wire  1 S! clk_to_dig $end
    $var wire  1 S! clk_to_dram $end
    $var wire  1 S! clk_to_led $end
    $var wire  1 S! clk_to_sw $end
    $var wire 32 v! rdata_from_btn [31:0] $end
    $var wire 32 E! rdata_from_dram [31:0] $end
    $var wire 24 T! rdata_from_sw [23:0] $end
    $var wire 32 e! rdata_to_cpu [31:0] $end
    $var wire  1 R! rst_from_cpu $end
    $var wire  1 R! rst_to_btn $end
    $var wire  1 R! rst_to_dig $end
    $var wire  1 R! rst_to_led $end
    $var wire  1 R! rst_to_sw $end
    $var wire 32 C wdata_from_cpu [31:0] $end
    $var wire 32 C wdata_to_dig [31:0] $end
    $var wire 32 C wdata_to_dram [31:0] $end
    $var wire 24 E wdata_to_led [23:0] $end
    $var wire  1 B wen_from_cpu $end
    $var wire  1 g! wen_to_dig $end
    $var wire  1 f! wen_to_dram $end
    $var wire  1 h! wen_to_led $end
   $upscope $end
   $scope module Core_cpu $end
    $var wire 32 O! ALU_C [31:0] $end
    $var wire 32 D! Bus_addr [31:0] $end
    $var wire 32 e! Bus_rdata [31:0] $end
    $var wire 32 C Bus_wdata [31:0] $end
    $var wire  1 B Bus_wen $end
    $var wire  1 v CU_PC_sel $end
    $var wire  4 r CU_alu_op [3:0] $end
    $var wire  1 s CU_alub_sel $end
    $var wire  2 p CU_npc_op [1:0] $end
    $var wire  1 q CU_ram_we $end
    $var wire  1 w CU_reg_RE1 $end
    $var wire  1 x CU_reg_RE2 $end
    $var wire  1 t CU_rf_we $end
    $var wire  2 u CU_rf_wsel [1:0] $end
    $var wire  3 o CU_sext_op [2:0] $end
    $var wire 32 e! DRAM_rdo [31:0] $end
    $var wire 32 P! EX_MEM_ALU_C [31:0] $end
    $var wire 32 $! EX_MEM_CU_ram_we [31:0] $end
    $var wire  1 )! EX_MEM_CU_rf_we $end
    $var wire  2 %! EX_MEM_CU_rf_wsel [1:0] $end
    $var wire 32 *! EX_MEM_SEXT_ext [31:0] $end
    $var wire  1 7 EX_MEM_have_inst $end
    $var wire 32 2 EX_MEM_pc [31:0] $end
    $var wire 32 (! EX_MEM_pc4 [31:0] $end
    $var wire 32 &! EX_MEM_rD2 [31:0] $end
    $var wire  5 '! EX_MEM_rd [4:0] $end
    $var wire  1 1 ID_EX_CU_PC_sel $end
    $var wire  4 - ID_EX_CU_alu_op [3:0] $end
    $var wire  2 . ID_EX_CU_npc_op [1:0] $end
    $var wire  1 { ID_EX_CU_ram_we $end
    $var wire  1 } ID_EX_CU_rf_we $end
    $var wire  2 | ID_EX_CU_rf_wsel [1:0] $end
    $var wire 32 #! ID_EX_SEXT_ext [31:0] $end
    $var wire  1 6 ID_EX_have_inst $end
    $var wire  1 0 ID_EX_last_CU_PC_sel $end
    $var wire 32 + ID_EX_opA [31:0] $end
    $var wire 32 , ID_EX_opB [31:0] $end
    $var wire 32 / ID_EX_pc [31:0] $end
    $var wire 32 "! ID_EX_pc4 [31:0] $end
    $var wire 32 ~ ID_EX_rD2 [31:0] $end
    $var wire  5 !! ID_EX_rd [4:0] $end
    $var wire  1 5 IF_ID_have_inst $end
    $var wire 32 z IF_ID_inst [31:0] $end
    $var wire 32 * IF_ID_pc [31:0] $end
    $var wire 32 y IF_ID_pc4 [31:0] $end
    $var wire  1 4 IF_have_inst $end
    $var wire 14 i IROM_adr [13:0] $end
    $var wire 32 h IROM_inst [31:0] $end
    $var wire  1 2! JMP_suspend $end
    $var wire  1 -! MEM_WB_CU_rf_we $end
    $var wire  1 8 MEM_WB_have_inst $end
    $var wire 32 3 MEM_WB_pc [31:0] $end
    $var wire  5 ,! MEM_WB_rd [4:0] $end
    $var wire 32 +! MEM_WB_rf_wD [31:0] $end
    $var wire 32 j! NPC_npc [31:0] $end
    $var wire 32 w! NPC_pc4 [31:0] $end
    $var wire 32 k! PC_din [31:0] $end
    $var wire 32 l! PC_din2 [31:0] $end
    $var wire 32 j PC_pc [31:0] $end
    $var wire 32 k PC_pc4 [31:0] $end
    $var wire 32 m RF_rD1 [31:0] $end
    $var wire 32 n RF_rD2 [31:0] $end
    $var wire 32 x! RF_wD [31:0] $end
    $var wire 32 l SEXT_ext [31:0] $end
    $var wire  1 S! cpu_clk $end
    $var wire  1 R! cpu_rst $end
    $var wire  1 b! debug_wb_ena $end
    $var wire  1 `! debug_wb_have_inst $end
    $var wire 32 a! debug_wb_pc [31:0] $end
    $var wire  5 c! debug_wb_reg [4:0] $end
    $var wire 32 d! debug_wb_value [31:0] $end
    $var wire  1 0! suspend_ID_EX $end
    $var wire  1 /! suspend_IF_ID $end
    $var wire  1 .! suspend_PC $end
    $var wire  1 1! suspend_continue $end
    $var wire  1 9 suspend_continue1 $end
    $scope module CU $end
     $var wire  1 1" ALUB_EXT [0:0] $end
     $var wire  1 0" ALUB_RS2 [0:0] $end
     $var wire  4 $" ALU_ADD [3:0] $end
     $var wire  4 &" ALU_AND [3:0] $end
     $var wire  4 ," ALU_BEQ [3:0] $end
     $var wire  4 /" ALU_BGE [3:0] $end
     $var wire  4 ." ALU_BLT [3:0] $end
     $var wire  4 -" ALU_BNE [3:0] $end
     $var wire  4 '" ALU_OR [3:0] $end
     $var wire  4 )" ALU_SLL [3:0] $end
     $var wire  4 +" ALU_SRA [3:0] $end
     $var wire  4 *" ALU_SRL [3:0] $end
     $var wire  4 %" ALU_SUB [3:0] $end
     $var wire  4 (" ALU_XOR [3:0] $end
     $var wire  1 v CU_PC_sel $end
     $var wire  4 r CU_alu_op [3:0] $end
     $var wire  1 s CU_alub_sel $end
     $var wire  3 4! CU_funct3 [2:0] $end
     $var wire  7 5! CU_funct7 [6:0] $end
     $var wire  2 p CU_npc_op [1:0] $end
     $var wire  7 3! CU_opcode [6:0] $end
     $var wire  1 q CU_ram_we $end
     $var wire  1 w CU_reg_RE1 $end
     $var wire  1 x CU_reg_RE2 $end
     $var wire  1 t CU_rf_we $end
     $var wire  2 u CU_rf_wsel [1:0] $end
     $var wire  3 o CU_sext_op [2:0] $end
     $var wire  3 !" EXT_B [2:0] $end
     $var wire  3 }! EXT_I [2:0] $end
     $var wire  3 #" EXT_J [2:0] $end
     $var wire  3 ~! EXT_S [2:0] $end
     $var wire  3 "" EXT_U [2:0] $end
     $var wire  2 z! NPC_B [1:0] $end
     $var wire  2 |! NPC_JALR [1:0] $end
     $var wire  2 {! NPC_JMP [1:0] $end
     $var wire  2 y! NPC_PC4 [1:0] $end
     $var wire  2 y! WB_ALU [1:0] $end
     $var wire  2 |! WB_DRAM [1:0] $end
     $var wire  2 z! WB_EXT [1:0] $end
     $var wire  2 {! WB_PC4 [1:0] $end
    $upscope $end
    $scope module EX $end
     $var wire 32 + ALU_A [31:0] $end
     $var wire 32 , ALU_B [31:0] $end
     $var wire 32 O! ALU_C [31:0] $end
     $var wire  1 : ALU_f $end
     $var wire  4 - ALU_op [3:0] $end
     $var wire  1 Q! NPC_aluin $end
     $var wire  1 : NPC_br $end
     $var wire 32 j! NPC_npc [31:0] $end
     $var wire 32 #! NPC_offset [31:0] $end
     $var wire  2 . NPC_op [1:0] $end
     $var wire 32 / NPC_pc [31:0] $end
     $var wire  1 ; NPC_pc4 $end
    $upscope $end
    $scope module Hazard $end
     $var wire  1 )! EX_MEM_CU_rf_we $end
     $var wire  5 '! EX_MEM_rd [4:0] $end
     $var wire  1 } ID_EX_CU_rf_we $end
     $var wire  5 !! ID_EX_rd [4:0] $end
     $var wire  1 w ID_reg_re1 $end
     $var wire  1 x ID_reg_re2 $end
     $var wire 32 6! IF_ID_rs1 [31:0] $end
     $var wire 32 7! IF_ID_rs2 [31:0] $end
     $var wire  1 2! JMP_suspend $end
     $var wire  1 -! MEM_WB_CU_rf_we $end
     $var wire  5 ,! MEM_WB_rd [4:0] $end
     $var wire  1 S! clk $end
     $var wire  1 >! hazard $end
     $var wire  1 8! hazard_A1 $end
     $var wire  1 9! hazard_A2 $end
     $var wire  1 :! hazard_B1 $end
     $var wire  1 ;! hazard_B2 $end
     $var wire  1 <! hazard_C1 $end
     $var wire  1 =! hazard_C2 $end
     $var wire  1 R! rst $end
     $var wire  1 0! suspend_ID_EX $end
     $var wire  1 /! suspend_IF_ID $end
     $var wire  1 .! suspend_PC $end
     $var wire  1 1! suspend_continue $end
     $var wire  2 ?! timer1 [1:0] $end
     $var wire  2 @! timer2 [1:0] $end
    $upscope $end
    $scope module ID_WB $end
     $var wire 32 m RF_rD1 [31:0] $end
     $var wire 32 n RF_rD2 [31:0] $end
     $var wire  5 A! RF_rR1 [4:0] $end
     $var wire  5 B! RF_rR2 [4:0] $end
     $var wire 32 F RF_reg[0] [31:0] $end
     $var wire 32 P RF_reg[10] [31:0] $end
     $var wire 32 Q RF_reg[11] [31:0] $end
     $var wire 32 R RF_reg[12] [31:0] $end
     $var wire 32 S RF_reg[13] [31:0] $end
     $var wire 32 T RF_reg[14] [31:0] $end
     $var wire 32 U RF_reg[15] [31:0] $end
     $var wire 32 V RF_reg[16] [31:0] $end
     $var wire 32 W RF_reg[17] [31:0] $end
     $var wire 32 X RF_reg[18] [31:0] $end
     $var wire 32 Y RF_reg[19] [31:0] $end
     $var wire 32 G RF_reg[1] [31:0] $end
     $var wire 32 Z RF_reg[20] [31:0] $end
     $var wire 32 [ RF_reg[21] [31:0] $end
     $var wire 32 \ RF_reg[22] [31:0] $end
     $var wire 32 ] RF_reg[23] [31:0] $end
     $var wire 32 ^ RF_reg[24] [31:0] $end
     $var wire 32 _ RF_reg[25] [31:0] $end
     $var wire 32 ` RF_reg[26] [31:0] $end
     $var wire 32 a RF_reg[27] [31:0] $end
     $var wire 32 b RF_reg[28] [31:0] $end
     $var wire 32 c RF_reg[29] [31:0] $end
     $var wire 32 H RF_reg[2] [31:0] $end
     $var wire 32 d RF_reg[30] [31:0] $end
     $var wire 32 e RF_reg[31] [31:0] $end
     $var wire 32 I RF_reg[3] [31:0] $end
     $var wire 32 J RF_reg[4] [31:0] $end
     $var wire 32 K RF_reg[5] [31:0] $end
     $var wire 32 L RF_reg[6] [31:0] $end
     $var wire 32 M RF_reg[7] [31:0] $end
     $var wire 32 N RF_reg[8] [31:0] $end
     $var wire 32 O RF_reg[9] [31:0] $end
     $var wire 32 +! RF_wD [31:0] $end
     $var wire  5 ,! RF_wR [4:0] $end
     $var wire  1 -! RF_we $end
     $var wire 25 C! SEXT_din [24:0] $end
     $var wire 32 l SEXT_ext [31:0] $end
     $var wire  3 o SEXT_op [2:0] $end
     $var wire  1 S! clk $end
     $var wire 32 f i [31:0] $end
     $var wire 32 5" ii [31:0] $end
     $var wire 32 6" iii [31:0] $end
     $var wire 32 2" j [31:0] $end
     $var wire 32 5" jj [31:0] $end
     $var wire 32 3" k [31:0] $end
     $var wire 32 4" l [31:0] $end
     $var wire  1 R! rst $end
    $upscope $end
    $scope module IF $end
     $var wire 14 i IROM_adr [13:0] $end
     $var wire 32 k! PC_din [31:0] $end
     $var wire 32 j PC_pc [31:0] $end
     $var wire 32 k PC_pc4 [31:0] $end
     $var wire  1 S! clk $end
     $var wire  1 R! rst $end
    $upscope $end
   $upscope $end
   $scope module Digital_LEDs $end
    $var wire  8 A NUM_ONE [7:0] $end
    $var wire  8 @ NUM_ZERO [7:0] $end
    $var wire  1 S! clk $end
    $var wire 18 > cnt [17:0] $end
    $var wire  1 < cnt_end $end
    $var wire  1 = cnt_inc $end
    $var wire 18 ? cnt_max [17:0] $end
    $var wire  8 V! dig_en [7:0] $end
    $var wire  8 ) led_cx [7:0] $end
    $var wire  1 R! rst $end
    $var wire 32 C wdata [31:0] $end
    $var wire  1 g! we $end
   $upscope $end
   $scope module LED $end
    $var wire 24 _! LED_out [23:0] $end
    $var wire  1 S! clk $end
    $var wire  1 R! rst $end
    $var wire 24 E wdata [23:0] $end
    $var wire  1 h! we $end
   $upscope $end
   $scope module Mem_DRAM $end
    $var wire 32 7" ADDR_BITS [31:0] $end
    $var wire 16 N! a [15:0] $end
    $var wire  1 S! clk $end
    $var wire 32 C d [31:0] $end
    $var wire 32 # i [31:0] $end
    $var wire 32 $ j [31:0] $end
    $var wire 32 % mem_file [31:0] $end
    $var wire 32 E! spo [31:0] $end
    $var wire  1 f! we $end
   $upscope $end
   $scope module Mem_IROM $end
    $var wire 32 7" ADDR_BITS [31:0] $end
    $var wire 16 g a [15:0] $end
    $var wire 32 & i [31:0] $end
    $var wire 32 ' j [31:0] $end
    $var wire 32 ( mem_file [31:0] $end
    $var wire 32 h spo [31:0] $end
   $upscope $end
  $upscope $end
 $upscope $end
$enddefinitions $end


#9
b00000000000100000000000000000000 #
b00000000000100000000000000000000 $
b10000000000000000000000000101011 %
b00000000000100000000000000000000 &
b00000000000100000000000000000000 '
b10000000000000000000000000101100 (
b00000000 )
b00000000000000000000000000000000 *
b00000000000000000000000000000000 +
b00000000000000000000000000000000 ,
b0000 -
b00 .
b00000000000000000000000000000000 /
00
01
b00000000000000000000000000000000 2
b00000000000000000000000000000000 3
04
05
06
07
08
09
0:
0;
0<
0=
b000000000000000000 >
b000000000000000000 ?
b00000000 @
b00000000 A
0B
b00000000000000000000000000000000 C
b00000000000000000000000000000000 D
b000000000000000000000000 E
b00000000000000000000000000000000 F
b00000000000000000000000000000000 G
b00000000000000000000000000000000 H
b00000000000000000000000000000000 I
b00000000000000000000000000000000 J
b00000000000000000000000000000000 K
b00000000000000000000000000000000 L
b00000000000000000000000000000000 M
b00000000000000000000000000000000 N
b00000000000000000000000000000000 O
b00000000000000000000000000000000 P
b00000000000000000000000000000000 Q
b00000000000000000000000000000000 R
b00000000000000000000000000000000 S
b00000000000000000000000000000000 T
b00000000000000000000000000000000 U
b00000000000000000000000000000000 V
b00000000000000000000000000000000 W
b00000000000000000000000000000000 X
b00000000000000000000000000000000 Y
b00000000000000000000000000000000 Z
b00000000000000000000000000000000 [
b00000000000000000000000000000000 \
b00000000000000000000000000000000 ]
b00000000000000000000000000000000 ^
b00000000000000000000000000000000 _
b00000000000000000000000000000000 `
b00000000000000000000000000000000 a
b00000000000000000000000000000000 b
b00000000000000000000000000000000 c
b00000000000000000000000000000000 d
b00000000000000000000000000000000 e
b00000000000000000000000000000000 f
b0000000000000000 g
b00000000010000000000000001101111 h
b00000000000000 i
b00000000000000000000000000000000 j
b00000000000000000000000000000100 k
b00000000000000000000000000000000 l
b00000000000000000000000000000000 m
b00000000000000000000000000000000 n
b000 o
b00 p
0q
b0000 r
0s
0t
b10 u
0v
0w
0x
b00000000000000000000000000000000 y
b00000000000000000000000000000000 z
0{
b00 |
0}
b00000000000000000000000000000000 ~
b00000 !!
b00000000000000000000000000000000 "!
b00000000000000000000000000000000 #!
b00000000000000000000000000000000 $!
b00 %!
b00000000000000000000000000000000 &!
b00000 '!
b00000000000000000000000000000000 (!
0)!
b00000000000000000000000000000000 *!
b00000000000000000000000000000000 +!
b00000 ,!
0-!
1.!
0/!
00!
01!
12!
b0000000 3!
b000 4!
b0000000 5!
b00000000000000000000000000000000 6!
b00000000000000000000000000000000 7!
08!
09!
0:!
0;!
0<!
0=!
0>!
b00 ?!
b00 @!
b00000 A!
b00000 B!
b0000000000000000000000000 C!
b00000000000000000000000000000000 D!
b00000000010000000000000001101111 E!
b000000000000 F!
1G!
0H!
0I!
0J!
0K!
b10000 L!
0M!
b0000000000000000 N!
b00000000000000000000000000000000 O!
b00000000000000000000000000000000 P!
0Q!
1R!
0S!
b000000000000000000000000 T!
b00000 U!
b00000000 V!
0W!
0X!
0Y!
0Z!
0[!
0\!
0]!
0^!
b000000000000000000000000 _!
0`!
b00000000000000000000000000000000 a!
0b!
b00000 c!
b00000000000000000000000000000000 d!
b00000000010000000000000001101111 e!
0f!
0g!
0h!
b00000000000000000000000000000000 i!
b00000000000000000000000000000000 j!
b00000000000000000000000000000000 k!
b00000000000000000000000000000100 l!
0m!
0n!
b000000000000 o!
0p!
0q!
b000000000000 r!
0s!
0t!
b000000000000 u!
b00000000000000000000000000000000 v!
b00000000000000000000000000000000 w!
b00000000000000000000000000000000 x!
b00 y!
b01 z!
b10 {!
b11 |!
b000 }!
b001 ~!
b010 !"
b011 ""
b100 #"
b0001 $"
b0010 %"
b0011 &"
b0100 '"
b0101 ("
b1000 )"
b1001 *"
b1010 +"
b1100 ,"
b1101 -"
b1110 ."
b1111 /"
00"
11"
b00000000000000000000000000000000 2"
b00000000000000000000000000000000 3"
b00000000000000000000000000000000 4"
b00000000000000000000000000100000 5"
b00000000000000000000000000000000 6"
b00000000000000000000000000010000 7"
#10
b00000001 )
1=
b000000011111010000 ?
b00000011 @
b10011111 A
b11111111111111111111111111111100 j
b00000000000000000000000000000000 k
1S!
b11111110 V!
1^!
b11111111111111111111111111111100 k!
b00000000000000000000000000000000 l!
#15
0S!
#19
#20
1S!
#25
0S!
#29
#30
1S!
#35
0S!
#39
#40
1S!
#45
0S!
#49
#50
1S!
#55
0S!
#59
#60
1S!
#65
0S!
#69
#70
1S!
#75
0S!
#79
#80
1S!
#85
0S!
#89
#90
1S!
#95
0S!
#99
#100
1S!
#105
0S!
#109
#110
1S!
#115
0S!
#119
#120
1S!
#125
0S!
#129
#130
1S!
#135
0S!
#139
#140
1S!
#145
0S!
#149
#150
1S!
#155
0S!
#159
#160
1S!
#165
0S!
#169
#170
1S!
#175
0S!
#179
#180
1S!
#185
0S!
#189
#190
1S!
#195
0S!
#199
#200
1S!
#205
0S!
#209
0R!
#210
b11111111111111111111111111111100 *
14
b000000000000000001 >
b00000000000000000000000000000100 l
b100 o
b10 p
1t
1v
b00000000010000000000000001101111 z
b10 |
1/!
b1101111 3!
b00000000000000000000000000000100 7!
b10 ?!
b00100 B!
b0000000001000000000000000 C!
1S!
#215
0S!
#219
#220
b10 .
b11111111111111111111111111111100 /
10
11
04
b000000000000000010 >
1}
b00000000000000000000000000000100 #!
b10 %!
11!
02!
b01 ?!
1S!
b00000000000000000000000000000000 k!
#225
0S!
#229
#230
01
b11111111111111111111111111111100 2
14
19
b000000000000000011 >
b00000000000000000000000000000000 j
b00000000000000000000000000000100 k
1)!
b00000000000000000000000000000100 *!
0/!
01!
12!
b00 ?!
1S!
b00000000000000000000000000000100 l!
#235
0S!
#239
#240
b00000000000000000000000000000000 *
b11111111111111111111111111111100 3
15
09
b000000000000000100 >
b00000000000000000000000000000100 y
1-!
1/!
b10 ?!
1S!
1b!
#245
0S!
#249
#250
b00000000000000000000000000000000 /
04
05
16
b000000000000000101 >
b00000000000000000000000000100000 f
b00000000000000000000000000000100 "!
11!
02!
b01 ?!
1S!
b00000000000000000000000000000100 j!
b00000000000000000000000000000100 k!
#255
0S!
#259
#260
b00000000000000000000000000000000 2
14
06
17
19
b000000000000000110 >
b0000000000000001 g
b00000000000000000000000010010011 h
b00000000000001 i
b00000000000000000000000000000100 j
b00000000000000000000000000001000 k
b00000000000000000000000000000100 (!
0.!
0/!
01!
b00 ?!
1S!
b00000000000000000000000000001000 k!
b00000000000000000000000000001000 l!
#265
0S!
#269
#270
b00000000000000000000000000000100 *
b00000000000000000000000000000000 3
15
07
18
09
b000000000000000111 >
b0000000000000010 g
b00000000000000000000000100010011 h
b00000000000010 i
b00000000000000000000000000001000 j
b00000000000000000000000000001100 k
b00000000000000000000000000000000 l
b000 o
b00 p
b0001 r
1s
b00 u
0v
1w
b00000000000000000000000000001000 y
b00000000000000000000000010010011 z
b00000000000000000000000000000100 +!
b0010011 3!
b00000000000000000000000000000000 7!
b00000 B!
b0000000000000000000000001 C!
1S!
1`!
b00000000000000000000000000000100 d!
b00000000000000000000000000001100 k!
b00000000000000000000000000001100 l!
#275
0S!
#279
#280
b00000000000000000000000000001000 *
b0001 -
b00 .
b00000000000000000000000000000100 /
00
16
08
b000000000000001000 >
b0000000000000011 g
b00000000001000001000011100110011 h
b00000000000011 i
b00000000000000000000000000001100 j
b00000000000000000000000000010000 k
b00000000000000000000000000001100 y
b00000000000000000000000100010011 z
b00 |
b00001 !!
b00000000000000000000000000001000 "!
b00000000000000000000000000000000 #!
b0000000000000000000000010 C!
1S!
0`!
b00000000000000000000000000000000 j!
b00000000000000000000000000010000 k!
b00000000000000000000000000010000 l!
#285
0S!
#289
#290
b00000000000000000000000000001100 *
b00000000000000000000000000001000 /
b00000000000000000000000000000100 2
17
b000000000000001001 >
b0000000000000100 g
b00000000000000000000001110010011 h
b00000000000100 i
b00000000000000000000000000010000 j
b00000000000000000000000000010100 k
b00000000000000000000000000000010 l
0s
1x
b00000000000000000000000000010000 y
b00000000001000001000011100110011 z
b00010 !!
b00000000000000000000000000001100 "!
b00 %!
b00001 '!
b00000000000000000000000000001000 (!
b00000000000000000000000000000000 *!
b0110011 3!
b00000000000000000000000000000001 6!
b00000000000000000000000000000010 7!
19!
1:!
1>!
b00001 A!
b00010 B!
b0000000000100000100001110 C!
1S!
b00000000000000000000000000010100 k!
b00000000000000000000000000010100 l!
#295
0S!
#299
#300
b00000000000000000000000000010000 *
b00000000000000000000000000001100 /
b00000000000000000000000000001000 2
b00000000000000000000000000000100 3
18
b000000000000001010 >
b0000000000000101 g
b00000000001000000000000110010011 h
b00000000000101 i
b00000000000000000000000000010100 j
b00000000000000000000000000011000 k
b00000000000000000000000000000000 l
1s
0x
b00000000000000000000000000010100 y
b00000000000000000000001110010011 z
b01110 !!
b00000000000000000000000000010000 "!
b00000000000000000000000000000010 #!
b00010 '!
b00000000000000000000000000001100 (!
b00000000000000000000000000000000 +!
b00001 ,!
1.!
1/!
10!
b0010011 3!
b00000000000000000000000000000000 6!
b00000000000000000000000000000000 7!
09!
0:!
0>!
b11 ?!
b11 @!
b00000 A!
b00000 B!
b0000000000000000000000111 C!
1S!
1`!
b00000000000000000000000000000100 a!
b00001 c!
b00000000000000000000000000000000 d!
b00000000000000000000000000011000 l!
#305
0S!
#309
#310
b00000000000000000000000000001100 2
b00000000000000000000000000001000 3
04
05
06
b000000000000001011 >
b01110 '!
b00000000000000000000000000010000 (!
b00000000000000000000000000000010 *!
b00010 ,!
b10 ?!
b10 @!
1S!
b00000000000000000000000000001000 a!
b00010 c!
#315
0S!
#319
#320
b00000000000000000000000000001100 3
07
b000000000000001100 >
b01110 ,!
11!
b01 ?!
b01 @!
1S!
b00000000000000000000000000001100 a!
b01110 c!
b00000000000000000000000000011000 k!
#325
0S!
#329
#330
b00000000000000000000000000010100 *
b00000000000000000000000000010000 /
14
08
19
b000000000000001101 >
b0000000000000110 g
b01001100011101110001011001100011 h
b00000000000110 i
b00000000000000000000000000011000 j
b00000000000000000000000000011100 k
b00000000000000000000000000000010 l
b00000000000000000000000000011000 y
b00000000001000000000000110010011 z
b00111 !!
b00000000000000000000000000010100 "!
b00000000000000000000000000000000 #!
0/!
00!
01!
12!
b00000000000000000000000000000010 7!
b00 ?!
b00 @!
b00010 B!
b0000000000100000000000011 C!
1S!
0`!
b00000000000000000000000000011100 l!
#335
0S!
#339
#340
b00000000000000000000000000011000 *
b00000000000000000000000000000010 ,
b00000000000000000000000000010100 /
b00000000000000000000000000010000 2
15
09
b000000000000001110 >
b00000000000000000000010011001100 l
b010 o
b01 p
b1101 r
0s
0t
1v
1x
b00000000000000000000000000011100 y
b01001100011101110001011001100011 z
b00011 !!
b00000000000000000000000000011000 "!
b00000000000000000000000000000010 #!
b00111 '!
b00000000000000000000000000010100 (!
b00000000000000000000000000000000 *!
1/!
b1100011 3!
b001 4!
b0100110 5!
b00000000000000000000000000001110 6!
b00000000000000000000000000000111 7!
1;!
1<!
1>!
b10 ?!
b01110 A!
b00111 B!
b0100110001110111000101100 C!
b00000000000000000000000000000010 O!
1S!
#345
0S!
#349
#350
b00000000000000000000000000000000 ,
b1101 -
b01 .
b00000000000000000000000000011000 /
10
11
b00000000000000000000000000010100 2
b00000000000000000000000000010000 3
04
05
16
b000000000000001111 >
0}
b01100 !!
b00000000000000000000000000011100 "!
b00000000000000000000010011001100 #!
b00011 '!
b00000000000000000000000000011000 (!
b00000000000000000000000000000010 *!
b00111 ,!
11!
02!
0;!
0<!
1=!
b01 ?!
b00000000000000000000000000000010 P!
1S!
b00000000000000000000000000010000 a!
b00111 c!
b00000000000000000000000000000000 k!
b00000000000000000000000000000000 l!
#355
0S!
#359
#360
01
b00000000000000000000000000011000 2
b00000000000000000000000000010100 3
14
06
17
19
b000000000000010000 >
b0000000000000000 g
b00000000010000000000000001101111 h
b00000000000000 i
b00000000000000000000000000000000 j
b00000000000000000000000000000100 k
b01100 '!
b00000000000000000000000000011100 (!
0)!
b00000000000000000000010011001100 *!
b00000000000000000000000000000010 +!
b00011 ,!
0/!
01!
12!
0=!
0>!
b00 ?!
b00000000000000000000000000000010 D!
b000000000010 F!
1S!
b00000000000000000000000000010100 a!
b00011 c!
b00000000000000000000000000000010 d!
b00000000000000000000000000000100 l!
#365
0S!
#369
#370
b00000000000000000000000000000000 *
b00000000000000000000000000011000 3
15
07
18
09
b000000000000010001 >
b00000000000000000000000000000010 I
b00000000000000000000000000000100 l
b100 o
b10 p
1t
b10 u
0w
0x
b00000000000000000000000000000100 y
b00000000010000000000000001101111 z
b01100 ,!
0-!
1/!
b1101111 3!
b000 4!
b0000000 5!
b00000000000000000000000000000000 6!
b00000000000000000000000000000100 7!
b10 ?!
b00000 A!
b00100 B!
b0000000001000000000000000 C!
1S!
1`!
b00000000000000000000000000011000 a!
0b!
b01100 c!
